lat,lng,nombre,internet,horario ,descripción,con internado,teléfono,email,Facebook,web,Instagram,modulos productivos,localidad,provincia,país,categoría
-32.86069,-61.162909,"EESMTP N° 486 ""Francisco Netri""",Si,7:30:00 AM a 18:00 ,Escuela de enseñanza técnica profesional agropecuaria,no,https://wa.me/15551234567,,Escuela Agrotecnica La Agro,,escuelaagrotecnicalaagro,cerdo,,,,escuelas
-32.866127,-61.011875,Colegio Polivalente Nº 2009 Immanuel Kant,No,08 a 20,"Colegio polivalente, modalidad agropecuaria",no,0341 490-9089,,,,,,,,,escuelas
-32.772728,-60.785073,"EESMTP N° 383 ""Dr. Julio Maiztegui"".-",Si,7:30 AM a 18:00,Escuela de enseñanza técnica profesional agropecuaria,no,3476492095,,,,,cerdo - horticola - avicola - conejos,,,,escuelas
-33.030045,-60.899461,Modulo de Producción Porcina-FCA-UNR,No,8 a 12,Universitaria,no,,,,,,cerdo,,,,escuelas
-33.049853,-61.154598,"Escuela Agrotecnica de Casilda, ""Gral. San Martin""",Si,7:30 AM a 18:00,Escuela de enseñanza técnica profesional agropecuaria,si,03464 4233771,,,https://eac.unr.edu.ar/,,,,,,escuelas
-34.83543,-56.22393,Escuela Agraria Montevideo
-31.43569,-64.18583,UNC
-31.48612,-64.24586,UCC
-36.55715,-64.30146,UNLP
-35.67001,-63.77727,FV-UNLP
-39.28763,-65.6624,UNRN
-34.59816,-58.48309,UBA
-34.78195,-58.45523,UNLZ
-32.6005468,-58.0290272,UDELAR
-33.11665,-64.34926,Escuela de Agronomía de Río Cuarto
-32.9497,-60.65337,Escuela Agrotécnica Lib Gral San Martín
-33.38729,-64.72991,IPEA 244 Victor Santiago Iraola
-33.1472,-62.85403,IPEA N° 212
-34.68735,-56.54291,EA Libertad
-34.63395, -55.96052,TPAF
-32.81949,-63.8905,IPEA N° 291
-31.54394,-68.52093,Escuela Agrotécnica Manuel Belgrano
-34.04816,-60.13554,Escuela de Educación Agraria N° 1 Martín Fierro
-36.15341,-65.42724,Escuela Agrotécnica Florencio Peironel
-33.15502,-61.47882,EET N° 388 Julio I Maiztegui
-37.64793,-63.5444,Escuela Agrotécnica de Guatraché
-31.55763,-63.54066,IBAT V. Rosario
-34.34322,-63.43484,IPEA N° 237 San Antonio
-33.07288,-64.32844,EA RIV
-33.09909,-64.29244,IPEAYT Capitán Castagnari
-37.83192,-58.23788,EESA Balcarce
-26.6216,-54.10934,Es Fam Agr San Pedro
-34.57169,-58.65179,EESA N° 1 Juana M Gorriti
-31.99157,-68.42429,Escuela Agrotécnica Sarmiento
-32.88108,-61.02337,Colegio Polivalente Inmanuel Kant
-31.35962,-64.16143,IPEM N° 21 Alfonsina Storni
-33.20729,-64.43364,IPEA N° 2015 Raul Scalabrini
-31.64914,-68.50134,Escuela Agrotécnica Los Pioneros
-31.53671,-68.71564,Escuela Agrotécnica Zonda
-35.16663,-64.26538,Instituto Privado Fundación Sociedad Rural Argentina
-32.91955,-54.9624,Escuela Agraria Santa Clara de Olimar
-31.66146,-68.381,Escuela Agrotécnica Ana Pérez Ciani
-34.90146,-58.59923,Agropecuaria N° 1 de Ezeiza
-30.21224,-69.13795,Escuela Agrotécnica Cornelio Saavedra